Suite/Test/Step Name,Browser,Description,Start time,End time,Duration,Status
Shipper HQ Login,Chrome 71.0.3578.98,,2019-01-04 11:12:15,2019-01-04 11:19:09,6m - 54.119s,PASSED
,,,,,,
Test Cases/Login HQ Get Account From Excel,Chrome 71.0.3578.98,,2019-01-04 11:12:18,2019-01-04 11:14:48,2m - 29.547s,PASSED
"Statement - For ([rowNum = 1, rowNum <= com.kms.katalon.core.testdata.TestDataFactory.findTestData(Data File 1/akun shipper).getRowNumbers(), (rowNum++)])",Chrome 71.0.3578.98,,2019-01-04 11:12:19,2019-01-04 11:14:48,2m - 28.767s,PASSED
,,,,,,
Test Cases/Login HQ Get Account From Excel,Chrome 71.0.3578.98,,2019-01-04 11:14:48,2019-01-04 11:16:41,1m - 53.509s,PASSED
"Statement - For ([rowNum = 1, rowNum <= com.kms.katalon.core.testdata.TestDataFactory.findTestData(Data File 1/akun shipper).getRowNumbers(), (rowNum++)])",Chrome 71.0.3578.98,,2019-01-04 11:14:48,2019-01-04 11:16:41,1m - 53.486s,PASSED
,,,,,,
Test Cases/Login HQ Get Account From Excel,Chrome 71.0.3578.98,,2019-01-04 11:16:41,2019-01-04 11:17:32,50.389s,PASSED
"Statement - For ([rowNum = 1, rowNum <= com.kms.katalon.core.testdata.TestDataFactory.findTestData(Data File 1/akun shipper).getRowNumbers(), (rowNum++)])",Chrome 71.0.3578.98,,2019-01-04 11:16:41,2019-01-04 11:17:32,50.380s,PASSED
,,,,,,
Test Cases/Login HQ Get Account From Excel,Chrome 71.0.3578.98,,2019-01-04 11:17:32,2019-01-04 11:18:21,49.373s,PASSED
"Statement - For ([rowNum = 1, rowNum <= com.kms.katalon.core.testdata.TestDataFactory.findTestData(Data File 1/akun shipper).getRowNumbers(), (rowNum++)])",Chrome 71.0.3578.98,,2019-01-04 11:17:32,2019-01-04 11:18:21,49.363s,PASSED
,,,,,,
Test Cases/Login HQ Get Account From Excel,Chrome 71.0.3578.98,,2019-01-04 11:18:21,2019-01-04 11:19:09,47.597s,PASSED
"Statement - For ([rowNum = 1, rowNum <= com.kms.katalon.core.testdata.TestDataFactory.findTestData(Data File 1/akun shipper).getRowNumbers(), (rowNum++)])",Chrome 71.0.3578.98,,2019-01-04 11:18:21,2019-01-04 11:19:09,47.586s,PASSED
